codefest/cf04/hdl/dump.vcd
$date
	Sun Apr 26 23:46:02 2026
$end
$version
	Icarus Verilog
$end
$timescale
	1s
$end
$scope module mac_tb $end
$var wire 32 ! out [31:0] $end
$var reg 8 " a [7:0] $end
$var reg 8 # b [7:0] $end
$var reg 1 $ clk $end
$var reg 1 % rst $end
$scope module dut $end
$var wire 8 & a [7:0] $end
$var wire 8 ' b [7:0] $end
$var wire 1 $ clk $end
$var wire 1 % rst $end
$var reg 32 ( out [31:0] $end
$upscope $end
$upscope $end
$enddefinitions $end
$comment Show the parameter values. $end
$dumpall
$end
#0
$dumpvars
bx (
b0 '
b0 &
1%
0$
b0 #
b0 "
bx !
$end
#5
b0 !
b0 (
1$
#10
0$
b100 #
b100 '
b11 "
b11 &
0%
#15
b1100 !
b1100 (
1$
#20
0$
#25
b11000 !
b11000 (
1$
#30
0$
#35
b100100 !
b100100 (
1$
#40
0$
1%
#45
b0 !
b0 (
1$
#50
0$
b10 #
b10 '
b11111011 "
b11111011 &
0%
#55
b11111111111111111111111111110110 !
b11111111111111111111111111110110 (
1$
#60
0$
#65
b11111111111111111111111111101100 !
b11111111111111111111111111101100 (
1$
